Change Component Designator: OldDesignator=? NewDesignator=HiLink
Change Component Designator: OldDesignator=D? NewDesignator=D1
Change Component Designator: OldDesignator=D? NewDesignator=LED1
Change Component Designator: OldDesignator=J? NewDesignator=J1
Change Component Designator: OldDesignator=J? NewDesignator=J2
Change Component Designator: OldDesignator=R? NewDesignator=R1k
Change Component Designator: OldDesignator=R? NewDesignator=R10k
Change Component Designator: OldDesignator=RL? NewDesignator=RL1
Change Component Designator: OldDesignator=U? NewDesignator=4235
Change Component Designator: OldDesignator=U? NewDesignator=ESP8266
Change Component Designator: OldDesignator=U? NewDesignator=PC817
Change Net Name : Old Net Name=Net?_1 New Net Name=Net4235_2
Change Net Name : Old Net Name=Net?_2 New Net Name=NetHiLink_2
Change Net Name : Old Net Name=Net?_3 New Net Name=Net4235_4
Change Net Name : Old Net Name=Net?_4 New Net Name=NetD1_2
Change Net Name : Old Net Name=NetD?_1 New Net Name=NetLED1_1
Change Net Name : Old Net Name=NetD?_2 New Net Name=Net4235_1
Change Net Name : Old Net Name=NetJ?_2 New Net Name=NetJ2_2
Change Net Name : Old Net Name=NetPCF8574P_4 New Net Name=NetPC817_1
Change Net Name : Old Net Name=NetPCF8574P_14 New Net Name=NetESP8266_14
Change Net Name : Old Net Name=NetPCF8574P_15 New Net Name=NetESP8266_13
Change Net Name : Old Net Name=NetR?_1 New Net Name=NetPC817_3
Change Net Name : Old Net Name=NetR?_2 New Net Name=Net4235_5
Added Member To Class: ClassName=Sheet1 Member=Component D1 1N4001
Added Member To Class: ClassName=Sheet1 Member=Component ESP8266 ESP8266 ESP_12
Added Member To Class: ClassName=Sheet1 Member=Component J1 TB 2 PIN
Added Member To Class: ClassName=Sheet1 Member=Component PC817 Optoisolator1
Added Member To Class: ClassName=Sheet1 Member=Component R1k 1K
Added Member To Class: ClassName=Sheet1 Member=Component R10k 10K
Added Member To Class: ClassName=Sheet1 Member=Component R? 100K
Added Room: Name=Sheet1
